%YAML 1.1
%TAG !u! tag:unity3d.com,2011:
--- !u!1 &972126220148803082
GameObject:
  m_ObjectHideFlags: 0
  m_CorrespondingSourceObject: {fileID: 0}
  m_PrefabInstance: {fileID: 0}
  m_PrefabAsset: {fileID: 0}
  serializedVersion: 6
  m_Component:
  - component: {fileID: 972126220148803081}
  - component: {fileID: 972126220148803080}
  m_Layer: 0
  m_Name: _Manager
  m_TagString: Untagged
  m_Icon: {fileID: 0}
  m_NavMeshLayer: 0
  m_StaticEditorFlags: 0
  m_IsActive: 1
--- !u!4 &972126220148803081
Transform:
  m_ObjectHideFlags: 0
  m_CorrespondingSourceObject: {fileID: 0}
  m_PrefabInstance: {fileID: 0}
  m_PrefabAsset: {fileID: 0}
  m_GameObject: {fileID: 972126220148803082}
  m_LocalRotation: {x: 0, y: 0, z: 0, w: 1}
  m_LocalPosition: {x: 0.4406435, y: -3.0689206, z: 32.960487}
  m_LocalScale: {x: 1, y: 1, z: 1}
  m_Children: []
  m_Father: {fileID: 0}
  m_RootOrder: 0
  m_LocalEulerAnglesHint: {x: 0, y: 0, z: 0}
--- !u!114 &972126220148803080
MonoBehaviour:
  m_ObjectHideFlags: 0
  m_CorrespondingSourceObject: {fileID: 0}
  m_PrefabInstance: {fileID: 0}
  m_PrefabAsset: {fileID: 0}
  m_GameObject: {fileID: 972126220148803082}
  m_Enabled: 1
  m_EditorHideFlags: 0
  m_Script: {fileID: 11500000, guid: 33d4c1c1fdd05fc448261d4012b93beb, type: 3}
  m_Name: 
  m_EditorClassIdentifier: 
  _playerOnScene: {fileID: 0}
  _enemyPrefab:
  - {fileID: 5117638845866204849, guid: bbbcb3ae39b437c47ae6d19f66fc76a4, type: 3}
  - {fileID: 5117638845866204849, guid: dadcca5ae62cc5e4d86e2e1fc6e8a5e0, type: 3}
  - {fileID: 5117638845866204849, guid: 2a0f22efe681636438753138c1b0735b, type: 3}
  - {fileID: 5117638845866204849, guid: 0fadd4bec669ea64280ebb1a84cebf07, type: 3}
  - {fileID: 5117638845866204849, guid: 502e360cc13c2a1479090bde54b7f023, type: 3}
  - {fileID: 5117638845866204849, guid: d6a7694fc5937174d9cbd3c3004a414e, type: 3}
  - {fileID: 5117638845866204849, guid: 99f7f595a7e7e6543806ac9f046252fd, type: 3}
  - {fileID: 5117638845866204849, guid: 27f3c86270618ce42a208981bbfc05b7, type: 3}
  - {fileID: 5117638845866204849, guid: c2f4e947b71aa5e40adeba577786ab8c, type: 3}
  - {fileID: 5117638845866204849, guid: cdeaa86a8b9ac654096ba762b0f072c9, type: 3}
