%YAML 1.1
%TAG !u! tag:unity3d.com,2011:
--- !u!74 &7400000
AnimationClip:
  m_ObjectHideFlags: 0
  m_CorrespondingSourceObject: {fileID: 0}
  m_PrefabInstance: {fileID: 0}
  m_PrefabAsset: {fileID: 0}
  m_Name: Enemy_Idle
  serializedVersion: 6
  m_Legacy: 0
  m_Compressed: 0
  m_UseHighQualityCurve: 1
  m_RotationCurves: []
  m_CompressedRotationCurves: []
  m_EulerCurves: []
  m_PositionCurves: []
  m_ScaleCurves: []
  m_FloatCurves: []
  m_PPtrCurves:
  - curve:
    - time: 0
      value: {fileID: 21300000, guid: baa0c643131554ff99574059ec7da1cc, type: 3}
    - time: 0.2
      value: {fileID: 21300000, guid: 2c5f3b2250c31495db3ffcf7e90bb619, type: 3}
    - time: 0.35
      value: {fileID: 21300000, guid: 74c5b1be9ca4343ca9d68c58dd8b7332, type: 3}
    - time: 0.5
      value: {fileID: 21300000, guid: 23510f1f0d6994dccbcdd1aa3cfe73be, type: 3}
    - time: 0.65
      value: {fileID: 21300000, guid: d3b400141540442d5a4497e34887083f, type: 3}
    - time: 0.8
      value: {fileID: 21300000, guid: 764fc52f7266843e9b3dac17448f873f, type: 3}
    attribute: m_Sprite
    path: 
    classID: 212
    script: {fileID: 0}
  m_SampleRate: 60
  m_WrapMode: 0
  m_Bounds:
    m_Center: {x: 0, y: 0, z: 0}
    m_Extent: {x: 0, y: 0, z: 0}
  m_ClipBindingConstant:
    genericBindings:
    - serializedVersion: 2
      path: 0
      attribute: 0
      script: {fileID: 0}
      typeID: 212
      customType: 23
      isPPtrCurve: 1
    pptrCurveMapping:
    - {fileID: 21300000, guid: baa0c643131554ff99574059ec7da1cc, type: 3}
    - {fileID: 21300000, guid: 2c5f3b2250c31495db3ffcf7e90bb619, type: 3}
    - {fileID: 21300000, guid: 74c5b1be9ca4343ca9d68c58dd8b7332, type: 3}
    - {fileID: 21300000, guid: 23510f1f0d6994dccbcdd1aa3cfe73be, type: 3}
    - {fileID: 21300000, guid: d3b400141540442d5a4497e34887083f, type: 3}
    - {fileID: 21300000, guid: 764fc52f7266843e9b3dac17448f873f, type: 3}
  m_AnimationClipSettings:
    serializedVersion: 2
    m_AdditiveReferencePoseClip: {fileID: 0}
    m_AdditiveReferencePoseTime: 0
    m_StartTime: 0
    m_StopTime: 0.81666666
    m_OrientationOffsetY: 0
    m_Level: 0
    m_CycleOffset: 0
    m_HasAdditiveReferencePose: 0
    m_LoopTime: 1
    m_LoopBlend: 0
    m_LoopBlendOrientation: 0
    m_LoopBlendPositionY: 0
    m_LoopBlendPositionXZ: 0
    m_KeepOriginalOrientation: 0
    m_KeepOriginalPositionY: 1
    m_KeepOriginalPositionXZ: 0
    m_HeightFromFeet: 0
    m_Mirror: 0
  m_EditorCurves: []
  m_EulerEditorCurves: []
  m_HasGenericRootTransform: 0
  m_HasMotionFloatCurves: 0
  m_Events: []
