%YAML 1.1
%TAG !u! tag:unity3d.com,2011:
--- !u!74 &7400000
AnimationClip:
  m_ObjectHideFlags: 0
  m_CorrespondingSourceObject: {fileID: 0}
  m_PrefabInstance: {fileID: 0}
  m_PrefabAsset: {fileID: 0}
  m_Name: WalkingAnimation
  serializedVersion: 6
  m_Legacy: 0
  m_Compressed: 0
  m_UseHighQualityCurve: 1
  m_RotationCurves: []
  m_CompressedRotationCurves: []
  m_EulerCurves: []
  m_PositionCurves: []
  m_ScaleCurves: []
  m_FloatCurves: []
  m_PPtrCurves:
  - curve:
    - time: 0
      value: {fileID: 21300000, guid: 30bb6a75848c8eb40994ce6835001745, type: 3}
    - time: 0.11666667
      value: {fileID: 21300000, guid: 4fbd39b18fd64174d8e8205040e7346d, type: 3}
    - time: 0.23333333
      value: {fileID: 21300000, guid: 1fc67002c4745ce459b44e616a53eb42, type: 3}
    - time: 0.35
      value: {fileID: 21300000, guid: a7107f89f60687e4d959a3978b16833a, type: 3}
    - time: 0.46666667
      value: {fileID: 21300000, guid: 47fddf606acdd4e4bb51afbaffa7b9da, type: 3}
    - time: 0.5833333
      value: {fileID: 21300000, guid: d65672160f465684fa7c47d710350159, type: 3}
    attribute: m_Sprite
    path: 
    classID: 212
    script: {fileID: 0}
  m_SampleRate: 60
  m_WrapMode: 0
  m_Bounds:
    m_Center: {x: 0, y: 0, z: 0}
    m_Extent: {x: 0, y: 0, z: 0}
  m_ClipBindingConstant:
    genericBindings:
    - serializedVersion: 2
      path: 0
      attribute: 0
      script: {fileID: 0}
      typeID: 212
      customType: 23
      isPPtrCurve: 1
    pptrCurveMapping:
    - {fileID: 21300000, guid: 30bb6a75848c8eb40994ce6835001745, type: 3}
    - {fileID: 21300000, guid: 4fbd39b18fd64174d8e8205040e7346d, type: 3}
    - {fileID: 21300000, guid: 1fc67002c4745ce459b44e616a53eb42, type: 3}
    - {fileID: 21300000, guid: a7107f89f60687e4d959a3978b16833a, type: 3}
    - {fileID: 21300000, guid: 47fddf606acdd4e4bb51afbaffa7b9da, type: 3}
    - {fileID: 21300000, guid: d65672160f465684fa7c47d710350159, type: 3}
  m_AnimationClipSettings:
    serializedVersion: 2
    m_AdditiveReferencePoseClip: {fileID: 0}
    m_AdditiveReferencePoseTime: 0
    m_StartTime: 0
    m_StopTime: 0.59999996
    m_OrientationOffsetY: 0
    m_Level: 0
    m_CycleOffset: 0
    m_HasAdditiveReferencePose: 0
    m_LoopTime: 1
    m_LoopBlend: 0
    m_LoopBlendOrientation: 0
    m_LoopBlendPositionY: 0
    m_LoopBlendPositionXZ: 0
    m_KeepOriginalOrientation: 0
    m_KeepOriginalPositionY: 1
    m_KeepOriginalPositionXZ: 0
    m_HeightFromFeet: 0
    m_Mirror: 0
  m_EditorCurves: []
  m_EulerEditorCurves: []
  m_HasGenericRootTransform: 0
  m_HasMotionFloatCurves: 0
  m_Events: []
